epoch,dice_loss,loss,lr,val_dice_loss,val_loss
0,0.5095526460572665,0.6788336898722623,1e-04,0.13866013183712822,1.268313691729591
1,0.6380758778558957,0.5095244586602974,1e-04,0.24708305561686056,1.096288785294958
2,0.6865101275002051,0.4437005348815909,1e-04,0.27104710563754825,1.088255127242054
3,0.7204202589391374,0.39761722562053825,1e-04,0.2514973643823143,1.1617584048948668
4,0.74725356671151,0.36125223609226836,1e-04,0.19189281848024403,1.2653707374752552
5,0.7699578457553014,0.33024479516732763,1e-04,0.21244800469490308,1.228543605586646
6,0.78935668781867,0.3034342072739901,1e-04,0.2385330128416046,1.1747854370243695
7,0.825997244433058,0.24918167705606595,1e-05,0.2886037305291594,1.1339991397945712
8,0.8438730728888986,0.22510231781248632,1e-05,0.2988986243167236,1.1295538423881586
9,0.8548406718609503,0.2104515677049125,1e-05,0.3253017784137821,1.1002839987606998
10,0.8629403157850329,0.19929217953917505,1e-05,0.3598048218965021,1.054782451096962
11,0.8701068086045743,0.18936968172997778,1e-05,0.37736273135742593,1.0376704316966388
12,0.8762531703806505,0.18069990714504838,1e-05,0.3614151759620256,1.071546492788604
13,0.8818740412196855,0.17283730825542915,1e-05,0.3486412947227458,1.100447770935801
14,0.8865342010665836,0.1661802004369148,1e-05,0.3594711377824846,1.0905261119959768
15,0.89068214249674,0.1602870701774375,1e-05,0.35622423705366596,1.1041871986131975
16,0.8948166540637934,0.15413419744233273,1e-06,0.3725531846402526,1.0736616445294391
17,0.8966451045302811,0.15158314774313567,1e-06,0.3715012301961268,1.0769023014082273
18,0.8977159192735714,0.1501534781535458,1e-06,0.37074164422929234,1.0790955311210557
19,0.8985674986672123,0.14899097559546975,1e-06,0.3698947326580775,1.0813147588854743
