epoch,dice_loss,loss,lr,val_dice_loss,val_loss
0,0.34037393860216275,0.9503691409720154,1e-04,0.2532497327720459,0.9850770083298604
1,0.5960511490318268,0.5561937572886925,1e-04,0.16297379882908467,1.2238984481586312
2,0.6601522510675262,0.477883792101577,1e-04,0.14678117544496608,1.3124493920652465
3,0.6908738327143155,0.4372749631015412,1e-04,0.16518396818924394,1.2489639093159934
4,0.710674119683513,0.4091819968869847,1e-04,0.21429800739957258,1.222272917961356
5,0.7512730003098431,0.3506192995022818,1e-05,0.31822443183232507,1.0309459130027203
6,0.7634470431003704,0.33419019021351426,1e-05,0.3279193342779084,1.0238715469895114
7,0.7687363245105089,0.32701000590489127,1e-05,0.3493153350074202,0.9881506840851378
8,0.7723883913465232,0.32240907257372897,1e-05,0.34098590259139644,1.0155271528355698
9,0.7775702709053018,0.3149007646078783,1e-05,0.35889505161943963,0.9847477891412723
10,0.7804785663509631,0.3108937957830399,1e-05,0.3895455387927116,0.9478232395428842
11,0.7838303984501469,0.3065410084111251,1e-05,0.3773968430113005,0.9741112617350413
12,0.7865887413853047,0.30295906504479303,1e-05,0.39207823690681143,0.9488750324884123
13,0.7913612243627837,0.2964382349620529,1e-05,0.4025546738892487,0.9366316947401786
14,0.792936350945013,0.2946701368957745,1e-05,0.40612724988690313,0.9232534587499119
15,0.7961882926057345,0.2910611500421035,1e-05,0.3952315975309192,0.9540849948126326
16,0.7980146753122184,0.28749071967819434,1e-05,0.35318531361194144,1.025638083153494
17,0.8020734226671908,0.28218328681602983,1e-05,0.3585590744075212,1.0168053419759138
18,0.8040319650578647,0.27946750848017177,1e-05,0.31827888901896284,1.0930652732809731
19,0.8095969123101343,0.27099150858494286,1e-06,0.334841681599095,1.0636737377059704
20,0.8105766055018817,0.2699344358169502,1e-06,0.35186790402318974,1.03509777801725
21,0.8120567447287751,0.26810357328938994,1e-06,0.35475515642168204,1.0301692800920372
22,0.8123164596929566,0.26762558381952983,1e-06,0.3438733237812445,1.047703717059598
23,0.8135428711059185,0.266783277774608,1e-07,0.33754964684728134,1.0579289936173646
24,0.8133556519004347,0.26634097526891537,1e-07,0.34547541133623977,1.0444843607173602
25,0.8131888507362882,0.2664133130058376,1e-07,0.34253013618727124,1.0487609106261715
26,0.8138917950209384,0.26552504039544195,1e-07,0.34031957312169386,1.0526715992896503
27,0.813770265110425,0.2652941037125583,1e-08,0.3461787489484846,1.0422096849935976
28,0.813452421308942,0.26579694377536933,1e-08,0.3438468842650198,1.0457777529520473
29,0.8135436669416852,0.26596868904299437,1e-08,0.34370345413480413,1.0463743731451915
30,0.813366723840822,0.2664819202291664,1e-08,0.34324553154300436,1.0470226615580456
31,0.8139426237688212,0.26582713621646786,1e-09,0.3461406327026004,1.042298391504816
32,0.8136173031141325,0.2659821879938116,1e-09,0.33890914551831036,1.0549026618488098
33,0.8137841904702916,0.26605045285668344,1e-09,0.34239722766433894,1.049202087437562
34,0.8137577829667985,0.2660522729676787,1e-09,0.34289917267996556,1.0475794583761773
35,0.8143172922340731,0.26507130055144984,9.9999994e-11,0.3417581810947271,1.049851748379141
36,0.8145207286083487,0.2649596527688907,9.9999994e-11,0.34372374137480105,1.0468966350958577
37,0.8146331028923953,0.2647722938340302,9.9999994e-11,0.3419567233851676,1.0495523068659276
38,0.8137715840405807,0.26567164182505193,9.9999994e-11,0.3412153296126743,1.0513578922106759
39,0.8143981265271347,0.2645585261198371,9.999999e-12,0.3408122789424419,1.0509216437592335
40,0.8149447345190244,0.2639741157346575,9.999999e-12,0.3457896352652653,1.0419952788899776
41,0.8132563890096818,0.26633942044237846,9.999999e-12,0.3474276869421075,1.0406236829285025
42,0.8132781475265619,0.2664665913816248,9.999999e-12,0.3428794559042625,1.0477705452486192
43,0.8132710921838308,0.2661779207807733,9.999999e-13,0.3475833835888159,1.0403142471528957
44,0.8131421680607275,0.2667092367130925,9.999999e-13,0.34597732242449314,1.0423763480663764
45,0.8133693186296778,0.26680112118746635,9.999999e-13,0.3452719084344794,1.043630113117433
46,0.8140856102986347,0.26549148567539277,9.999999e-13,0.34223674432350437,1.048706476582962
47,0.8126012023989926,0.2675783116677929,9.999999e-14,0.3428089667255429,1.0477431570301945
48,0.8138931744340356,0.265821557652202,9.999999e-14,0.3470243055408389,1.0413936036842557
49,0.8144498233116524,0.26445549049929057,9.999999e-14,0.34141299537748104,1.0500948637347411
50,0.8126724692856026,0.26720283283266844,9.999999e-14,0.3417534542749016,1.0502116778327841
51,0.812924797777505,0.26693581554687734,9.999999e-15,0.3438994636635789,1.0462455121896241
52,0.8135804978939652,0.26603071622119034,9.999999e-15,0.3487454342248667,1.0381142496193811
53,0.8142787188793836,0.26526198572299686,9.999999e-15,0.34303168573410997,1.0475392241403823
54,0.8133400535070504,0.2663299316232871,9.999999e-15,0.3443318954028598,1.0452705751760591
55,0.8140331902770127,0.2652758087499217,9.999999e-16,0.3459889942714689,1.0430218035787837
56,0.8145298833956088,0.2645587953380667,9.999999e-16,0.3472745551479552,1.0402290958936522
57,0.813206597469668,0.2661257707493745,9.999999e-16,0.34475658356428845,1.0453166120891089
58,0.813385838411068,0.26661243041544225,9.999999e-16,0.34624816185632534,1.0422545732573703
59,0.8134862919500646,0.26614267173220785,9.999999e-17,0.342461561313509,1.0488149798877964
60,0.8139782034835372,0.2655742076018708,9.999999e-17,0.3401013761892869,1.052569249541697
61,0.8132091564878535,0.26647963004819436,9.999999e-17,0.34128304818454264,1.051179070572348
62,0.8132013213106768,0.2665604465313468,9.999999e-17,0.3462334439488566,1.0418802501798488
63,0.8130741759666017,0.2666154584413525,9.999999e-18,0.3440461691804228,1.0460649834777453
64,0.8134191167215248,0.26569530875128256,9.999999e-18,0.3410335505858427,1.0501882641551794
65,0.8139681620271788,0.265296777509887,9.999999e-18,0.34651494042079467,1.0421880194582442
66,0.8145229274753357,0.26489941492216307,9.999999e-18,0.3435306162496466,1.04721175002403
67,0.8129855687018643,0.2666539307538816,9.999999e-19,0.3429309762208799,1.0479203014841811
68,0.8131133502175892,0.2667343187489601,9.999999e-19,0.3456258946281382,1.043765635514746
69,0.8138725740464594,0.2649262487307165,9.999999e-19,0.34415853115111367,1.0457307875619801
70,0.8138371398329354,0.2658018434465305,9.999999e-19,0.3377637221186661,1.0562173694053592
71,0.8137301275682295,0.2656098813214561,1e-19,0.3429651714488219,1.0475891801601944
72,0.8130202620406837,0.2662311104925586,1e-19,0.3452366330416849,1.044070581537178
73,0.8135910115631172,0.2659365813076406,1e-19,0.34955078715147847,1.03621427070411
74,0.812641681710865,0.26718538226567806,1e-19,0.34430960955431905,1.0452892020330253
75,0.8129612114259333,0.26660912881412946,1e-20,0.3440847907754895,1.0454227971555656
76,0.8138748413461357,0.2658211816594893,1e-20,0.34430277953843585,1.0456755932554442
77,0.8138804305635606,0.26574211588810387,1e-20,0.34846674578569364,1.0384105110597102
78,0.8134220786982412,0.2665328652837033,1e-20,0.34481393658666687,1.0440609318116432
79,0.8134296883780843,0.26666826697818247,1e-21,0.34426588110076023,1.0461766851886716
80,0.8137996137408217,0.2661573200373103,1e-21,0.34425938110769183,1.0459839723953583
81,0.8136893659531257,0.26583887907364884,1e-21,0.34622368062736625,1.0424757444012849
82,0.81330166095094,0.2658379019665481,1e-21,0.3474997329922525,1.0403946643899782
83,0.8133437296686744,0.2669626316128101,9.9999997e-23,0.3435884747722702,1.0469722436746425
84,0.8141306037316803,0.2654082053546233,9.9999997e-23,0.34428410993905834,1.0453004293411652
85,0.8149148945555987,0.26386488816888426,9.9999997e-23,0.3444670856755183,1.0451670650490519
86,0.8138801469879109,0.26546961876548436,9.9999997e-23,0.34493384137472494,1.0443230739661626
87,0.8133837704545441,0.2665230331108515,1e-23,0.3445589160513286,1.0457311933833031
88,0.8131846826188585,0.26699308002192135,1e-23,0.34726447893783025,1.0414958708024464
89,0.813526321815483,0.26571767543850655,1e-23,0.3460045728500264,1.0429241717788522
90,0.8141588300602673,0.2655200788834959,1e-23,0.3411120700075364,1.0513189708120738
91,0.8126642370175743,0.26725149994624287,1e-24,0.346623618438865,1.04159786002629
92,0.8141361835421536,0.2647662236747254,1e-24,0.34508410810906553,1.0432460675607964
93,0.8142517857434061,0.2652747292850769,1e-24,0.34027292403522374,1.0518018420572068
94,0.8130747259390446,0.266835530161336,1e-24,0.3456031268421697,1.0436126851016045
95,0.8135584374372956,0.26639024143380113,1e-25,0.3450509518413443,1.0438964614541468
96,0.8146522721448147,0.2647007597898525,1e-25,0.34244065515759115,1.049455729066109
97,0.8130709925337832,0.26665069096679045,1e-25,0.34929758501416175,1.036859301743401
98,0.8140126222498271,0.2653783883242614,1e-25,0.3420097718888258,1.0499232285398088
99,0.8136761852683155,0.2660078815479949,1e-26,0.34746813985288433,1.0405383059941413
100,0.8141423019843358,0.2650973366246645,1e-26,0.3450315921732896,1.044303072784802
101,0.8142837008991413,0.26500081266827924,1e-26,0.34684899675224157,1.0407603635326883
102,0.8146561207322709,0.2644204947068746,1e-26,0.34291523938202795,1.0477243897344906
103,0.8130056991165604,0.2666339354868093,1e-27,0.3465328576132115,1.0420006373127881
104,0.8146706183482035,0.2640812104711166,1e-27,0.34303564298499184,1.0482268805232757
105,0.8149970574365335,0.2637368698275182,1e-27,0.3478829478726209,1.0396308780759138
106,0.8131770212761695,0.2665208485870974,1e-27,0.3442619321706607,1.0452370109259213
107,0.8137558174556823,0.26567978068361947,1e-28,0.3445097320096577,1.0459073352454586
108,0.814181435864009,0.265389649514608,1e-28,0.34212981767787154,1.0484854642978794
109,0.8130211372416654,0.2665486797849771,1e-28,0.3424224536100595,1.048709268154046
110,0.8135085413295835,0.2661884814853375,1e-28,0.344918852651051,1.0442142996310724
111,0.8136688905053505,0.2655697108802604,1e-29,0.3463726806691603,1.0426616125945563
112,0.8137158638630272,0.26582518923873133,1e-29,0.34383600994360686,1.0452906209305726
113,0.8139549477096099,0.26531251383480087,1e-29,0.34164385375217987,1.0495223357506003
114,0.8136494568802252,0.26596639832914803,1e-29,0.34321719189453914,1.0476863900357016
115,0.8133945502306583,0.26623297697891035,1e-30,0.34597076481144057,1.0428777415562418
116,0.8138902612130521,0.26581575519621836,1e-30,0.34357036415831343,1.0469243870532199
117,0.813429113769362,0.26656100396855753,1e-30,0.34487178898498483,1.0454674098709467
118,0.8141591621137425,0.26501322776729574,1e-30,0.34272151329102984,1.0478895027389563
119,0.8124327173734457,0.26795570770569965,1e-31,0.34811662393336434,1.0382746429960048
120,0.8135119304760736,0.2663070075366849,1e-31,0.3455870446806843,1.042971599003548
121,0.8129647779797144,0.26648842990833077,1e-31,0.34195436702905885,1.048776893707244
122,0.8133889019216411,0.2661318169647543,1e-31,0.34404769635592874,1.0460757398570593
123,0.8126684014146943,0.26713336429292256,9.9999995e-33,0.3442693248015149,1.0450618013927842
124,0.8144408189612115,0.26479914542062205,9.9999995e-33,0.34796055530446135,1.0404442597408683
125,0.8136594809303801,0.2660646797532124,9.9999995e-33,0.33910221669893525,1.0543054616833567
126,0.8134467675672685,0.2659154811442581,9.9999995e-33,0.3419238651581213,1.0491795861049111
127,0.8139503728270341,0.26508040826722606,9.999999e-34,0.34616434749069785,1.0425440315718322
128,0.8132339464233405,0.266183156986192,9.999999e-34,0.35154118306484106,1.0336992687919513
129,0.8124686508554588,0.2675022192954592,9.999999e-34,0.34442907153905156,1.0451640873075805
130,0.8133444432347293,0.26622907232087467,9.999999e-34,0.343004314774879,1.046857689368829
131,0.8133789414610165,0.2659776106439756,9.999999e-35,0.3418248044816491,1.0494881563388223
132,0.8148495253396254,0.2637946918911028,9.999999e-35,0.3495762653007268,1.0367713557272078
133,0.8129712077763854,0.267416965219618,9.999999e-35,0.3476463231361386,1.039280577089395
134,0.8135334968864423,0.26610618064706454,9.999999e-35,0.3457325112693855,1.043254597889091
135,0.813822225654305,0.26560254813338546,9.9999995e-36,0.3448187140740551,1.0450278937063597
136,0.8129937894273185,0.2669237765202632,9.9999995e-36,0.3457575823534262,1.0434404768274175
137,0.8131226881028072,0.266803053498281,9.9999995e-36,0.3411902350757544,1.050592826597892
138,0.8149007094421085,0.2643599973978634,9.9999995e-36,0.3440102525811995,1.0461665276651595
139,0.8145432195341651,0.2641100073587423,9.9999995e-37,0.3487522095625718,1.0377870178315336
140,0.8145143056265018,0.2647790377066119,9.9999995e-37,0.34421130996855337,1.0455299725337905
141,0.8136443757945503,0.26617691117317105,9.9999995e-37,0.3453248790569662,1.0438111287164271
142,0.8134020331351718,0.2661880032757463,9.9999995e-37,0.3433062914410806,1.0470538396529485
143,0.8129399844322835,0.2667167023904525,1e-37,0.3447136236181613,1.044338904299472
144,0.8133374328718802,0.2665537835759664,1e-37,0.3436906528787573,1.04582632966593
145,0.8135827965168089,0.2659082374283553,1e-37,0.3451612980749679,1.0444422765364336
146,0.8136899605932321,0.26605345285195753,1e-37,0.3435627428896056,1.0469975687845803
147,0.8153409865962413,0.26302851032056784,1e-38,0.34159780752327407,1.0503102793522086
148,0.8145097362591145,0.2646185445237837,1e-38,0.34249091302626766,1.0485508447427907
149,0.8132991502333156,0.2669492964709279,1e-38,0.344947261214926,1.0442891556505327
150,0.8131214234163556,0.26686806090469106,1e-38,0.3469909694365896,1.0409237818595156
151,0.8123997393787243,0.26751334962814194,1e-39,0.34541841324471845,1.0431415295288098
152,0.8130154720328562,0.26667916707134287,1e-39,0.34349047171242264,1.0466474025022416
153,0.8120207833895917,0.2684061877033452,1e-39,0.3430000983090484,1.0479554434906984
154,0.8140677901298007,0.2649629531305866,1e-39,0.3454107389508396,1.043745492098978
155,0.813085688447319,0.26661014616853246,1e-40,0.3478798372493387,1.0394936491842983
156,0.8136859703105701,0.26561359625773356,1e-40,0.34502377365485576,1.0449883852396578
157,0.8138023242226105,0.26600772484673335,1e-40,0.3436895656804789,1.0472742258865237
158,0.8129070554677063,0.2672322877612715,1e-40,0.34964074844049164,1.0365322555466923
159,0.8137660612041886,0.2654907444368021,1e-41,0.3420365428803699,1.0497007536239364
160,0.8139228173403806,0.26532532990159097,1e-41,0.3382117837478587,1.054935215108017
161,0.8146128518593014,0.2642159628156209,1e-41,0.3422645402919959,1.048909443952831
162,0.813360884149946,0.26648980106549885,1e-41,0.34308518877765887,1.0483952117151607
163,0.8142443377741547,0.2650268280503558,1e-42,0.3452508514906826,1.043969430340738
164,0.8138622390916801,0.2656358312960318,1e-42,0.34434063537973447,1.0447940153329551
165,0.8136300739056255,0.26632929867086813,1e-42,0.3395785644665846,1.0530456075747112
166,0.813530815722197,0.2663315358783409,1e-42,0.3420625978553194,1.0486387159490724
167,0.8131065928983838,0.2669064939672461,1e-43,0.33937936446032,1.0539664812929082
168,0.8130557440926544,0.2666586745955378,1e-43,0.34480428471064456,1.0445198171108643
169,0.8140707848368811,0.2650761137585266,1e-43,0.34754402581657207,1.0404026182504158
170,0.8131744321971482,0.2672461836462778,1e-43,0.34699598685737026,1.0412844281618288
171,0.8142994356481721,0.2646668720756985,1e-44,0.34271856136434503,1.0480122051271452
172,0.8139503387402355,0.2657370762690232,1e-44,0.3469454323709105,1.0416288745704498
173,0.8136686042163283,0.26602290739694107,1e-44,0.34405187750000443,1.0463501050474577
174,0.8139606918733125,0.26544715245974765,1e-44,0.33970547533243695,1.0527917631513524
175,0.8146246145836072,0.2645920902907578,1e-45,0.34640193840471706,1.0414000099092229
176,0.8135231404914973,0.2658407386229756,1e-45,0.34451049026702574,1.0445551716146015
177,0.8135568374448336,0.2659611340922882,1e-45,0.34533658957266566,1.0436606748342745
178,0.8133524081043852,0.2660560375683222,1e-45,0.3403525466219417,1.0526211614801075
179,0.8127040727635123,0.2672676271948136,0.0,0.3460393618143243,1.042061063128843
180,0.8130342230233368,0.2666884498974967,0.0,0.33941923943580155,1.053778691009136
181,0.8137851186016325,0.2654356350768084,0.0,0.3463300475383456,1.0422424880825742
182,0.8135818227983298,0.26610391583557697,0.0,0.34738082543088,1.0402987515961115
183,0.8122271857424735,0.2681330521442093,0.0,0.34382698027232317,1.0472225296891233
184,0.8141309191114023,0.26516033802020494,0.0,0.3464614841056376,1.0417696141988126
185,0.8131279333631646,0.266474453812061,0.0,0.3434211595906377,1.0470283856023506
186,0.8139752565576013,0.26506497217269814,0.0,0.3463890066590301,1.0423836650144023
187,0.8146826583804971,0.264529169014717,0.0,0.339226082792726,1.0546039442800572
188,0.8135393108136617,0.2663171337007858,0.0,0.34261919015732734,1.0484448869443843
189,0.8138023883682578,0.2659205110065877,0.0,0.3447692845584596,1.0446006464541133
190,0.8153333164923687,0.26402197959096324,0.0,0.3469722874562615,1.0404808057872152
191,0.8126887821263067,0.2675652734125508,0.0,0.3450859794190954,1.044704487853194
192,0.813726671614689,0.26551447708124265,0.0,0.3415099402527975,1.049510987003065
193,0.8139917511139194,0.26521837285276284,0.0,0.3429843589724994,1.0480793934348025
194,0.8133420407222789,0.26598397465205414,0.0,0.346215115367489,1.0427929352682928
195,0.8143607741020549,0.2645065348052847,0.0,0.34477561432947434,1.0450255203235486
196,0.8128347352532269,0.2674068220333231,0.0,0.34124802622190753,1.049910591833793
197,0.8137934453118421,0.26593672654164074,0.0,0.3417620779418957,1.0492438917546971
198,0.8137068051749047,0.26588273468260737,0.0,0.3438799422372547,1.0464360285315035
199,0.8131276751568987,0.26669813027603806,0.0,0.34889130142787894,1.0381991211017205
200,0.8143525297976684,0.2647603073333653,0.0,0.34542390088720676,1.0429910417027097
201,0.812734769989546,0.2673149020205813,0.0,0.34362023087252686,1.047424210230046
202,0.8124129563461757,0.26782423232954927,0.0,0.345731279246176,1.0431630995750891
203,0.8132557921771035,0.2662127934872795,0.0,0.34317402517986667,1.0476059279068797
204,0.8136447046665264,0.26567872210390475,0.0,0.33991105851928965,1.0525496336473088
205,0.8135304568376064,0.266135345589025,0.0,0.3469513957792872,1.0416090773423976
206,0.8130215492317664,0.2672678243631276,0.0,0.3430894094852102,1.047769218972867
207,0.8132325623326515,0.2662868201611894,0.0,0.34518402112122154,1.0441909352185312
208,0.813369875563269,0.26584761817162805,0.0,0.342410516754408,1.0491101815644923
209,0.8137258880414703,0.2660784014495043,0.0,0.34001749173348994,1.0521735904921132
210,0.8145181421762414,0.264466939803918,0.0,0.34450206415881257,1.0452511709679435
211,0.8148728256719951,0.26392391871406584,0.0,0.34474764782877115,1.0443335877852722
212,0.8145618753472719,0.2643828552857028,0.0,0.34538839283864603,1.0433577894874866
213,0.8144122502650235,0.2643435408659891,0.0,0.34854912123848425,1.0370441313445626
214,0.8136388750666553,0.26569858641349997,0.0,0.3434960974280646,1.0466223548232525
215,0.8133333986594387,0.26593704897324355,0.0,0.35035629778804234,1.0354657703168886
216,0.8134753632504298,0.26597396616140573,0.0,0.3428067240442443,1.0470757540043867
217,0.813829908565674,0.2656462312947279,0.0,0.3433606934325726,1.0469370610338606
218,0.8148061282803565,0.2643711919829494,0.0,0.34644212165911453,1.0412965816010307
219,0.8137826959571042,0.2656865132837367,0.0,0.34465648944354915,1.0454312178032044
220,0.8145195523009985,0.2646202514569501,0.0,0.34591513313669836,1.042868270007468
221,0.8130987595576413,0.26693086679252115,0.0,0.3459045573213105,1.043133704116671
222,0.8118262583685294,0.26850160403867784,0.0,0.3435415476197714,1.0466484791509612
223,0.8129745046723861,0.2668473904698044,0.0,0.3414090476678191,1.050118315671693
224,0.8136349752260708,0.26612310370232334,0.0,0.3480562693342411,1.038914429347879
225,0.8133455032344695,0.26620411319624354,0.0,0.3460194143659885,1.0425781849464013
226,0.8133814113629965,0.26655189166861354,0.0,0.34463075462838366,1.0450813516583457
227,0.8139655810657868,0.26534071945574844,0.0,0.3452888236141721,1.0430507684819783
228,0.8135673772780524,0.26628609015964544,0.0,0.34257498074274745,1.0481898121398208
229,0.8134699925665491,0.26575276675467463,0.0,0.3424308010146422,1.0486474210365637
230,0.8131742930284668,0.26632033251209847,0.0,0.3428026268594021,1.0479333918574252
231,0.8149146578976882,0.2634266962811621,0.0,0.3399154386514584,1.0528383627171882
232,0.8135603029872939,0.2654639103795203,0.0,0.3445261629608091,1.0451746618898317
233,0.8133868298073446,0.26616987519371893,0.0,0.34299576096098117,1.0475416294108095
234,0.8146201400711123,0.26430438651060145,0.0,0.34480378412860724,1.0442757024651481
235,0.8137939805189082,0.2659578392364233,0.0,0.3430942901437541,1.0469456488815063
236,0.8139376673176213,0.26536739317824226,0.0,0.34457913935493334,1.0450720012303807
237,0.8137429392340777,0.26620473619550467,0.0,0.3445413636916613,1.0455625090816858
238,0.8131714785143945,0.2665403032966776,0.0,0.34583836437333776,1.0439281468836281
239,0.8137312332583171,0.2658518497319369,0.0,0.3447555526817524,1.0443744526486356
240,0.8135175292396932,0.26625095014102185,0.0,0.3474140221112072,1.0407026271952138
241,0.8130572587166137,0.2666705755409024,0.0,0.3442242865873973,1.045257101514249
242,0.8145232235232723,0.2646931169680163,0.0,0.3477681534257851,1.0398706593654825
243,0.8146196425768752,0.264635069862446,0.0,0.34592578948419533,1.0429515636465407
244,0.8140466096203263,0.2655102878755849,0.0,0.341888394565653,1.0503619516556186
245,0.8125311413855016,0.26770360785952624,0.0,0.3463428423409221,1.04245227285678
246,0.813079461989125,0.26646038587708204,0.0,0.34358760861246496,1.0461091773387179
247,0.8135697073482263,0.2660103602046686,0.0,0.34309995807983357,1.0469009226913935
248,0.8138904782449694,0.2656105033145347,0.0,0.342891393548263,1.0475278717146208
249,0.8138555231460977,0.2660165112377076,0.0,0.34225319741506255,1.049172182848896
250,0.8132578580730411,0.26688283385005407,0.0,0.33965183442755037,1.0530756635788694
251,0.8132148192988793,0.2661888182602739,0.0,0.3468001021241235,1.042456296778513
252,0.8132110850158745,0.2663741372871819,0.0,0.34942895812387476,1.0370833189656599
253,0.814936937465325,0.2644104702026296,0.0,0.34500242562453076,1.044683151678395
254,0.8128476581067,0.2667104859652067,0.0,0.34400352325427447,1.0457298607068577
255,0.8139234715126867,0.26574877341814795,0.0,0.346526275352948,1.04198556394109
256,0.8125460437494861,0.26777331900276574,0.0,0.3384586946810917,1.055228883862148
257,0.814503124060915,0.2644868150873427,0.0,0.3446912939127501,1.0446639040121184
258,0.8137824409346514,0.2655495124592952,0.0,0.34076066844762,1.0514631375337364
259,0.8132026955280989,0.2660991297423028,0.0,0.34278777963334767,1.0472456633581249
260,0.8140834437239699,0.26515324419652503,0.0,0.3486214847373731,1.0385189200339675
261,0.8137672325139809,0.26564570871087606,0.0,0.3487683276452832,1.0383019720731834
262,0.8127549783758942,0.26717425876376744,0.0,0.3465841960222904,1.0416999555132247
263,0.8132857197315884,0.26620986249439527,0.0,0.3448732707380379,1.044704921420508
264,0.8134575333893411,0.2663877333458851,0.0,0.34115456708897435,1.0507228562447257
265,0.813087269602333,0.2661086866549999,0.0,0.3432492156826927,1.047534024779141
266,0.8143595420302563,0.264753765428991,0.0,0.3452118156476168,1.044255961626913
267,0.813774696286587,0.2657796183839286,0.0,0.3451493589685353,1.0442318273355244
268,0.8132967614676834,0.26645990760711985,0.0,0.3466472570971401,1.0415292746877067
269,0.8128632736205572,0.2667418304869427,0.0,0.3437548794387568,1.0461064988948165
270,0.8140494865141954,0.2647956607906774,0.0,0.3482132283066487,1.038876818845988
271,0.8137566140185166,0.2659019069953813,0.0,0.3452449961344766,1.0441822652334838
272,0.813880147278094,0.2654288635720389,0.0,0.3435047083882528,1.0466228440273608
273,0.8128788722428228,0.2663502101387986,0.0,0.343538112633224,1.0472803419950056
274,0.8135098713061647,0.26627505085589614,0.0,0.34546790287525153,1.0438996685779245
275,0.8145958394802364,0.2643990698773591,0.0,0.3402308441020706,1.0518276701863236
276,0.8135888897081356,0.2661678322148972,0.0,0.3435621917402144,1.0472352902094524
277,0.812987579300222,0.26659585208315706,0.0,0.34050168948992116,1.0520529914122396
278,0.8135404817416078,0.2660447345537841,0.0,0.3478967543902166,1.0397022120053614
279,0.8136313962677189,0.2659668065382163,0.0,0.3470865391541351,1.0408258285768062
280,0.8142382333048297,0.26503604057332697,0.0,0.34363135599621286,1.047388487700934
281,0.8139408388875977,0.26499230798588247,0.0,0.3442289452929743,1.045963210632085
282,0.8133377158084028,0.266138975196192,0.0,0.3454151945492973,1.0432950060441728
283,0.8138388637999926,0.2655270636490608,0.0,0.3421576205599228,1.0478917480789423
284,0.813788878228942,0.2658279878920461,0.0,0.34532397369099205,1.0436494185926848
285,0.8131960609644231,0.2664144385192308,0.0,0.3463767456226275,1.0422127248015185
286,0.8143761520007445,0.264739232947575,0.0,0.34558829696553367,1.0442407185644405
287,0.8137136233146258,0.2661060239329239,0.0,0.34602460827893056,1.0428952808166965
288,0.8141948095057562,0.26512055924643624,0.0,0.34535629983719973,1.043525405887033
289,0.8121717614079224,0.268893960726511,0.0,0.34079335286042495,1.0513579317733313
290,0.813049215305731,0.2673746589160715,0.0,0.3465202598442743,1.0423495806282996
291,0.8135728513890984,0.26621180096626695,0.0,0.34387728688202457,1.045652530109917
292,0.8138452341068997,0.26543229907854116,0.0,0.3420740919914497,1.0488078996206047
293,0.8142524641142014,0.2655042346402707,0.0,0.34328105433849576,1.0471592190140537
294,0.8145928270169015,0.26428793187678995,0.0,0.34578427996290023,1.0436241410390281
295,0.8137117175289719,0.2661192451507922,0.0,0.3470537309265927,1.0416146025887036
296,0.8142913807468858,0.26498241600956424,0.0,0.34577290932832294,1.043274153252037
297,0.8135950223823676,0.2660737426825956,0.0,0.34287072188153944,1.048143915115223
298,0.8145757088553991,0.2644554123816917,0.0,0.3454270697575772,1.0440623396455488
299,0.8135335704702329,0.2660646803126499,0.0,0.3421990664648849,1.0482636420789335
300,0.8146019328965958,0.2643675383972447,0.0,0.34889643080278,1.0371990392113102
301,0.8127191006053036,0.2677466383448568,0.0,0.3429518385928991,1.0474400772876944
302,0.813570484336433,0.2658833596072994,0.0,0.3395509749912409,1.052136448920642
303,0.8141770393367496,0.2650101629014199,0.0,0.34755522767141817,1.0396767877860482
304,0.8133085566879127,0.2665412440258517,0.0,0.34684505438136476,1.0420008439306383
305,0.8141645359818388,0.26479438520877807,0.0,0.34332972738407735,1.04691325818832
306,0.8136631694273746,0.2657191289529243,0.0,0.3440131424753748,1.0459361849941016
307,0.8144620745714477,0.26486620305117314,0.0,0.343653955859698,1.0462513679549807
308,0.8130941269327641,0.2662905282980876,0.0,0.346070276796854,1.042666384383703
309,0.8135080461108787,0.26627071555172616,0.0,0.34099325423379045,1.0509474588552647
310,0.8131183969684416,0.26652736052494036,0.0,0.3460304046508644,1.0426330699343722
311,0.8139067823271563,0.2653385967067737,0.0,0.34885068820539766,1.037930392604991
312,0.8145917463107292,0.2643665748840728,0.0,0.34292162319780933,1.0475214486335294
313,0.8134294272376894,0.26619098202124974,0.0,0.34587673289204457,1.0436876377107103
314,0.8129134011452264,0.26697574377980793,0.0,0.34417192730899904,1.0461932175129334
315,0.8133176161331875,0.26681266221811056,0.0,0.3476224600792416,1.0400018131883546
316,0.8132977849744902,0.2662654465656847,0.0,0.3440801724976784,1.046531472423913
317,0.8134365437695512,0.2666220856603483,0.0,0.3474376541132185,1.0400904484520386
318,0.8138443184415319,0.2652896817994136,0.0,0.3446473919362994,1.045101396080588
319,0.8134554595288651,0.26628311631304363,0.0,0.34366216707026154,1.0467805201794131
320,0.8141980181843994,0.26503151606417413,0.0,0.34231901832939277,1.0484892984578862
321,0.8138992031230233,0.26564748708139413,0.0,0.3461870727353796,1.0421504850116485
322,0.813903457337633,0.2657929667599287,0.0,0.3459199815582105,1.0425075482001458
323,0.8137518824026827,0.26566729997908545,0.0,0.34262558410879346,1.0489488375546054
324,0.8133183196231292,0.26660787481605336,0.0,0.3438345218071136,1.0459716454133812
325,0.8137439628356167,0.2659850330981478,0.0,0.3405234849743581,1.0502524286711297
326,0.8132760597800118,0.2669098370369643,0.0,0.3427820082163222,1.0474655122520624
327,0.8139207472762313,0.2653202004859493,0.0,0.34568141929819307,1.0441049513478553
328,0.8143455598264584,0.2643345649053915,0.0,0.3460370348161177,1.0430229386157266
329,0.8136932353710763,0.26615145199754264,0.0,0.34521454153180825,1.0441531398785242
330,0.8135415276444284,0.26598235575100704,0.0,0.3437406329088618,1.0472076539279653
331,0.813820494986751,0.26598739516885117,0.0,0.347168823643342,1.0397754176017495
332,0.8134212331336121,0.2663186901122615,0.0,0.341300894564851,1.0500095287958782
333,0.8142049538859873,0.2651301589621394,0.0,0.3476123223950952,1.0403547345491377
334,0.8122212789549679,0.2679440787137714,0.0,0.3445619129609107,1.0451514243616191
335,0.8137673880919402,0.2653927441650974,0.0,0.3474833783829373,1.0400691543306624
336,0.8132922691130059,0.26657399929683195,0.0,0.3431201851684071,1.0474769210386785
337,0.8141349844765136,0.26524518468226455,0.0,0.34483981930735735,1.0439882126100093
338,0.8143705006091362,0.2646700201383828,0.0,0.3432096639027594,1.0474367202255075
339,0.8136781658025924,0.26584396840458735,0.0,0.34373042488118144,1.0461702530713077
340,0.8130417609711675,0.26698606245802486,0.0,0.34383942747345614,1.0465152410191165
341,0.8129244755928194,0.26736942562938715,0.0,0.3436301439511284,1.0468133877966448
342,0.813436618800333,0.2666864764185215,0.0,0.3443658905830352,1.045139050692233
343,0.8128659618916207,0.2673495324157893,0.0,0.3423647718147754,1.0486854932861958
344,0.8140670265684463,0.2657104578447128,0.0,0.347575952785191,1.039647064646896
345,0.8140038641227221,0.26498889359391986,0.0,0.3444563069823062,1.0450374301309373
346,0.8135893174117896,0.26583604106732683,0.0,0.34232073349827735,1.0489994906707223
347,0.8122704955912216,0.2681834354204614,0.0,0.3418817146268252,1.0498550973897773
348,0.8140472469733853,0.26522544840577744,0.0,0.3451504922978839,1.0440887480076362
349,0.8136952237231402,0.26605270839358264,0.0,0.3414384435377069,1.050123315308138
350,0.8142419673285914,0.26483893112819595,0.0,0.3432373087508133,1.0476083910731695
351,0.814454266547516,0.26464047576659,0.0,0.34611108565497245,1.0425144941396685
352,0.8138369149670316,0.265242257886369,0.0,0.34318647307926536,1.046248807880459
353,0.8134706278455137,0.2664210890591235,0.0,0.34638695905793526,1.0432307749146739
354,0.8129594498474952,0.26730912146074,0.0,0.3429329996544255,1.0479986568291981
355,0.814399202787414,0.2647143274065922,0.0,0.34461743022959845,1.044929309014097
356,0.8135916709618876,0.26612901995835914,0.0,0.34415141720120207,1.0454472268345985
357,0.8135155353562036,0.2658779837727199,0.0,0.3437059175492259,1.0462256728791866
358,0.8131583545182114,0.2665367981317544,0.0,0.3415060798317172,1.0497050468381801
359,0.8135259195560728,0.26597934035952997,0.0,0.34336369202845163,1.0467932134490203
360,0.8135846346702673,0.2664225985663931,0.0,0.34653274752023727,1.0416155021322713
361,0.8139443426816978,0.26536834300008694,0.0,0.34035114112646797,1.0519782769031265
362,0.8134652187345652,0.2664512697013229,0.0,0.34541618443975286,1.0427434015204537
363,0.8140381351244627,0.2656285992518467,0.0,0.3434488745456615,1.0473078277588355
364,0.8122439645614126,0.2678431803988439,0.0,0.3413128583369638,1.0501439030652375
365,0.813853951689451,0.2661047901711914,0.0,0.34331864818094676,1.046915630296785
366,0.8140743884590315,0.26524519669688923,0.0,0.34704825479301477,1.0408561278073039
367,0.8152958023411517,0.2637518268221846,0.0,0.34471690650828873,1.0449573174915463
368,0.813366902324829,0.2667661332183211,0.0,0.34439863661891623,1.0450763992306327
369,0.8134455554276445,0.2666183069176077,0.0,0.3456262602977431,1.0426554404438064
370,0.8144832850109794,0.26464587074842116,0.0,0.3430763746264621,1.0468709872867206
371,0.8132119690019367,0.2663514368669126,0.0,0.34609541114925635,1.0422968814915192
372,0.8130567017705208,0.266456482955315,0.0,0.34602141529718206,1.043014779701409
373,0.8143211208635461,0.2650717661580008,0.0,0.3416190974327405,1.0490674488861893
374,0.8136906743026681,0.26579059794055765,0.0,0.3427642076474794,1.0483822066651836
375,0.8137792379435558,0.26520745181329647,0.0,0.342759539774422,1.0478971097745051
376,0.8134098197733975,0.26606735564340084,0.0,0.3406035564087496,1.0519513369938838
377,0.8149423161891829,0.26396783288606895,0.0,0.3439770746706651,1.0463357701014269
378,0.8139462082449777,0.2658162360323485,0.0,0.3463995485005466,1.0421464580198998
379,0.8139202655301097,0.26522488511097436,0.0,0.3443162510756947,1.0450150570438486
380,0.8131157335587906,0.267070723565532,0.0,0.3447189986627378,1.0451964866026033
381,0.8127521219154797,0.267480256079391,0.0,0.3395576863510901,1.0533509789391324
382,0.8140816370168357,0.26578244652322197,0.0,0.34643029190878344,1.0409114766572725
383,0.8135726158512199,0.2660526266400425,0.0,0.3488683481237716,1.0382047664551508
384,0.81314479573339,0.26651240853864827,0.0,0.3457260603984353,1.0430057851346055
385,0.8143056687736335,0.264593663866903,0.0,0.33874806005633173,1.0546505709257488
386,0.812607275340191,0.2672979950682681,0.0,0.34720562442185593,1.0400126863730776
387,0.8129917045219262,0.2671402472376424,0.0,0.3474569123411025,1.0401971499762337
388,0.813843906223128,0.26533307534438866,0.0,0.3445858714274894,1.045340919459874
389,0.8142283740338717,0.2645207451786862,0.0,0.3426805661621685,1.0485329813639785
390,0.8136892917782532,0.2654349793146333,0.0,0.34512790161859475,1.0436431501708758
391,0.8141387654642487,0.26527241792436446,0.0,0.3418351106608804,1.049220071386897
392,0.813722659294516,0.26561549526229566,0.0,0.34381803889388707,1.0459031112513806
393,0.8133021720510794,0.2664020864490996,0.0,0.33912904263022414,1.0541276389586334
394,0.8126231953740166,0.2676747320855782,0.0,0.3437696869870133,1.0471593620304465
395,0.8151008499904585,0.2637035750454757,0.0,0.3419910611933406,1.0496971586934563
396,0.8133598039881186,0.2665343643129902,0.0,0.34340965848186317,1.0464865481598615
397,0.8131232464070454,0.26691953491583764,0.0,0.3440528154546321,1.046323276238029
398,0.8139698521816977,0.26498701884318704,0.0,0.3393116472549175,1.0540343124213094
399,0.8138190151024517,0.2657528034030631,0.0,0.34405051095430866,1.0450527709705142
400,0.8140640770463078,0.26460274967043795,0.0,0.3427462641271831,1.048496261601082
401,0.8137373907041097,0.26566739993889527,0.0,0.3472630129098115,1.0398760118509984
402,0.8132524033721119,0.2663969219305658,0.0,0.3426045861485334,1.0484345527501564
403,0.8143061945166973,0.2650219233144741,0.0,0.3447007184479484,1.0454395917055095
404,0.8131658316751083,0.26647939768200457,0.0,0.3406366692394988,1.0519035192400188
405,0.8134681507398703,0.2665358110723008,0.0,0.3446418963548009,1.0453414756250798
406,0.8140052462133717,0.26519230905237673,0.0,0.34068833061081444,1.051275243361791
407,0.8134214113016276,0.26604560666694244,0.0,0.34295995660685996,1.0478432955848465
408,0.813531888308627,0.26603299968891236,0.0,0.342816011506171,1.0481185933938875
409,0.8139741487775719,0.2654438431237083,0.0,0.3450562043607462,1.045166031293665
410,0.8135304150317273,0.2661633208972002,0.0,0.3419014002937295,1.0499146130620216
411,0.8141433891504013,0.26515725289464204,0.0,0.3505204292252672,1.0345915875119764
412,0.8133881847879647,0.2664243505459501,0.0,0.34515374412149663,1.0434333324084824
413,0.8135515975876262,0.2655798097961327,0.0,0.34390312236657594,1.0461712066297744
414,0.8150145472468069,0.2635462107619813,0.0,0.34119249307519944,1.0506972720370464
415,0.8123332054388259,0.2681827163581343,0.0,0.34569804055256037,1.0424836133728916
416,0.8142748989638037,0.26473485943100633,0.0,0.3445514240472978,1.0445090108872386
417,0.8137054830641054,0.2660436785265533,0.0,0.34854632677328007,1.0379096526793767
418,0.8132907328486757,0.2664994233486693,0.0,0.34399300063460764,1.0464044836566098
419,0.8144171794333822,0.26421812004445955,0.0,0.345317406724551,1.0442760293638973
420,0.8134801721289595,0.2658879826933648,0.0,0.34328298294658577,1.047599217982056
421,0.8137511122202445,0.265739568472134,0.0,0.3441397166568313,1.045593429411118
422,0.8140630004865133,0.2654850648671015,0.0,0.34755518969849947,1.0397398616644338
423,0.8146188614081059,0.26418829113470393,0.0,0.3451087363028369,1.044674666560426
424,0.8135296693861073,0.2658569804306626,0.0,0.3468460266962462,1.0416918643999147
425,0.8143894386344399,0.2650486269962548,0.0,0.34739969377627117,1.0395415951258007
426,0.8138189608361588,0.26601696625841315,0.0,0.3442965586911511,1.0462174260929096
427,0.813936229415786,0.26560030112971933,0.0,0.342674581982538,1.0480220125819781
428,0.8135337170055289,0.2661668805416767,0.0,0.3464960215394161,1.0415554895229544
429,0.8131438491550755,0.2667653026331342,0.0,0.34507344710990534,1.0441093066285487
430,0.8147691891912223,0.26447587549708973,0.0,0.339794374865237,1.0524565368108778
431,0.8141835836928387,0.2650602450546009,0.0,0.3417828780020765,1.0499974242741907
432,0.8140456526129295,0.26522694345621606,0.0,0.3467076916624457,1.0420043683666067
433,0.8135873299445878,0.26558757124447757,0.0,0.34127095132909824,1.050644892123976
434,0.8143786457721418,0.26519088813988373,0.0,0.3456016383728633,1.044032074590698
435,0.8142633559585766,0.2648403214342255,0.0,0.34471304356948673,1.0451239089982038
436,0.813915494986582,0.26582975780097134,0.0,0.3408255178293085,1.0515470680272963
437,0.8138041043422259,0.26585858706674675,0.0,0.34826154351107497,1.0385612334234258
438,0.814824845567897,0.2641945226365892,0.0,0.34351498275875103,1.0462816943811837
439,0.8134988928796798,0.26581438260302653,0.0,0.3456332919002756,1.0439649166356486
440,0.8125396946038308,0.267742715158573,0.0,0.34278833218970683,1.048127006511299
441,0.8138332569570919,0.265602396190965,0.0,0.34213389097474783,1.0489436015559124
442,0.8131304111439565,0.2667644600743748,0.0,0.3467869021877985,1.0418045355117471
443,0.8131928424713747,0.2668116567712744,0.0,0.3396870870308295,1.0538831589810471
444,0.8134578668037787,0.26539394248344567,0.0,0.34530059935500623,1.0439783804792009
445,0.8149437426647587,0.2640326643361031,0.0,0.3424331862445225,1.049388808892466
446,0.8134222268188283,0.265860877184933,0.0,0.3402258150889995,1.0528513459584687
447,0.81450284931497,0.26438748575231846,0.0,0.34650130991403,1.041686382307603
448,0.8139031052798904,0.2655006403943834,0.0,0.3432098541015522,1.0477895291252433
449,0.8139503591408384,0.26575537926663123,0.0,0.34784304312567443,1.0404605739202397
450,0.8142011606834475,0.26490180024212306,0.0,0.34358504716570754,1.0478087455700391
451,0.8150633614754146,0.2633567501983204,0.0,0.3455528010840146,1.0430743728481067
452,0.8135910253978255,0.2659696822699446,0.0,0.3481201209876344,1.039975871671393
453,0.8138287231477936,0.2654119023277248,0.0,0.34450172890087205,1.0449930808286974
454,0.8140254059276006,0.2653070398692489,0.0,0.3482064858432898,1.0390979907139628
455,0.8143223861137617,0.26463288767062054,0.0,0.3490305759808996,1.0376374265658728
456,0.8139054779852138,0.2655142577117117,0.0,0.34490262081043227,1.0443799956778628
457,0.8141559748519969,0.2651897237451816,0.0,0.34364245436086427,1.0476480388490752
458,0.8122373936730567,0.2681745175004984,0.0,0.3429745855035866,1.0471961293206618
459,0.81373548632447,0.2655172491745577,0.0,0.3478835717665131,1.0388439359366024
460,0.8139368922669198,0.26565313203197516,0.0,0.34288550938755197,1.0482826277222648
461,0.8139966907929617,0.265527898452165,0.0,0.34508402407637945,1.044153428778588
462,0.8138420540497734,0.26573822898959276,0.0,0.33998438165945893,1.0526289676322418
463,0.8135172629594789,0.2665806532553305,0.0,0.34893976398050175,1.0388103499067305
464,0.8140725548923066,0.26551753254212895,0.0,0.344776794044276,1.0450546040015967
465,0.8135170295853458,0.2665046438753489,0.0,0.34793879975209197,1.0397879523600735
466,0.813642918640896,0.26608088991283574,0.0,0.3445057408722159,1.0455642855781393
467,0.8130777896488167,0.26713348421780914,0.0,0.34338339079372004,1.0470848686203897
468,0.8125340903104205,0.2670544002264699,0.0,0.3434549665758855,1.0467976549218532
469,0.8134946455632062,0.26587112386314105,0.0,0.3429526911601408,1.0475563599254694
470,0.8136658151997269,0.2660030482132422,0.0,0.3445611802448267,1.0446442521753765
471,0.813014660347727,0.2663316729646772,0.0,0.3470583100400947,1.0410181606302455
472,0.8129874120290379,0.26674563739474544,0.0,0.34372904007725846,1.0470063160703065
473,0.8134526816053258,0.26595366766793826,0.0,0.3394194944915047,1.0536457460927546
474,0.8138441023898879,0.2654904544759178,0.0,0.3478092677891877,1.0394769484436084
475,0.8135240295974441,0.26611282568354105,0.0,0.34799379792867796,1.0386326311281053
476,0.8139594718354071,0.2653448739312042,0.0,0.343234167937893,1.0466598166610803
477,0.8139750443233134,0.2654985467828456,0.0,0.3422368370188084,1.0486606994048269
478,0.8131821336252446,0.26627500890210826,0.0,0.34140393021615495,1.049745763848428
479,0.8142458820591183,0.26483702050021296,0.0,0.34177736005048015,1.0496975591856954
480,0.8135570134335582,0.26605787041839357,0.0,0.34386955146396425,1.0466159816443978
481,0.8140365397030377,0.26509296478318856,0.0,0.34494546489822664,1.0450743830702163
482,0.8138818593450553,0.2655323406378759,0.0,0.34557604125074803,1.0435217027819423
483,0.813084578052523,0.2671469447839693,0.0,0.34153882460869495,1.0499081748046264
484,0.813750356442165,0.2661922513068611,0.0,0.3456709572765761,1.0421935307736299
485,0.8130784467322102,0.2659781441791184,0.0,0.34659897589925276,1.0416838761610934
486,0.8130281097438773,0.26713574504964344,0.0,0.34197058232478633,1.0497369654150817
487,0.8137544448654085,0.2654974873458633,0.0,0.34300072605109483,1.0469869411142274
488,0.813066053348022,0.26693566669866947,0.0,0.34323954956629904,1.0474310640980597
489,0.8136407520653005,0.2660919152813591,0.0,0.34457300194275864,1.046028155018915
490,0.8137399668790409,0.26611976111879254,0.0,0.34677004714060755,1.0414836810443793
491,0.8137250700346218,0.26570159993750225,0.0,0.33948229384035883,1.0538510940860382
492,0.8143140791545886,0.26466394860584,0.0,0.34666667528075107,1.0419079532196964
493,0.8135578134930278,0.2657478172259603,0.0,0.34708480695919863,1.0403978975509647
494,0.8140828680807914,0.2651485100021472,0.0,0.34731645041608783,1.040518593944544
495,0.8132935327497072,0.2665151601291826,0.0,0.34312465662517144,1.0472720715464379
496,0.8129356663399228,0.26678094295213317,0.0,0.346417832802317,1.0423735116035528
497,0.8141932094966922,0.2649348138033854,0.0,0.34561500016198154,1.0438805324458984
498,0.8138136775805369,0.2655039752922894,0.0,0.34276809520059853,1.0478416057149684
499,0.8138903270550225,0.26538571753026396,0.0,0.34314570949873113,1.0475973395379106
